Simulation/xspi_tb.vcd
$date
	Tue Jan 13 13:03:33 2026
$end
$version
	Icarus Verilog
$end
$timescale
	1s
$end
$scope module xspi_stimulus $end
$var wire 1 ! ready $end
$var wire 64 " rd_data [63:0] $end
$var wire 1 # done $end
$var wire 1 $ crc_data_match_slave $end
$var wire 1 % crc_data_match_master $end
$var wire 1 & crc_data_error_slave $end
$var wire 1 ' crc_data_error_master $end
$var wire 1 ( crc_ca_match_slave $end
$var wire 1 ) crc_ca_match_master $end
$var wire 1 * crc_ca_error_slave $end
$var wire 1 + crc_ca_error_master $end
$var reg 48 , address [47:0] $end
$var reg 1 - clk $end
$var reg 8 . command [7:0] $end
$var reg 48 / last_address [47:0] $end
$var reg 64 0 last_wr_data [63:0] $end
$var reg 1 1 rst_n $end
$var reg 1 2 start $end
$var reg 64 3 wr_data [63:0] $end
$scope module dut $end
$var wire 48 4 address [47:0] $end
$var wire 1 - clk $end
$var wire 8 5 command [7:0] $end
$var wire 1 1 rst_n $end
$var wire 1 2 start $end
$var wire 64 6 wr_data [63:0] $end
$var wire 8 7 slave_io_out [7:0] $end
$var wire 1 8 slave_io_oe $end
$var wire 1 9 sck $end
$var wire 1 ! ready $end
$var wire 64 : rd_data [63:0] $end
$var wire 8 ; master_io_out [7:0] $end
$var wire 1 < master_io_oe $end
$var wire 8 = io_bus [7:0] $end
$var wire 1 # done $end
$var wire 1 > data_strobe $end
$var wire 1 ? cs_n $end
$var wire 1 $ crc_data_match_slave $end
$var wire 1 % crc_data_match_master $end
$var wire 1 & crc_data_error_slave $end
$var wire 1 ' crc_data_error_master $end
$var wire 1 ( crc_ca_match_slave $end
$var wire 1 ) crc_ca_match_master $end
$var wire 1 * crc_ca_error_slave $end
$var wire 1 + crc_ca_error_master $end
$scope module master $end
$var wire 48 @ address_in [47:0] $end
$var wire 1 - clk $end
$var wire 8 A command_in [7:0] $end
$var wire 8 B io_in [7:0] $end
$var wire 1 1 rst_n $end
$var wire 1 2 start $end
$var wire 64 C wr_data_in [63:0] $end
$var wire 1 > data_strobe $end
$var wire 8 D crc_data_out [7:0] $end
$var wire 1 & crc_data_error_slave $end
$var wire 8 E crc_ca_out [7:0] $end
$var wire 1 * crc_ca_error_slave $end
$var parameter 3 F Latency $end
$var parameter 4 G STATE_ADDR $end
$var parameter 4 H STATE_CMD $end
$var parameter 4 I STATE_FINISH $end
$var parameter 4 J STATE_IDLE $end
$var parameter 4 K STATE_RD_DATA $end
$var parameter 4 L STATE_RECV_CRC_CA $end
$var parameter 4 M STATE_RECV_CRC_DATA $end
$var parameter 4 N STATE_SEND_CRC_CA $end
$var parameter 4 O STATE_SEND_CRC_DATA $end
$var parameter 4 P STATE_WR_DATA $end
$var reg 48 Q address [47:0] $end
$var reg 4 R byte_cnt [3:0] $end
$var reg 8 S command [7:0] $end
$var reg 1 T crc_ca_clear $end
$var reg 1 U crc_ca_enable $end
$var reg 1 + crc_ca_error $end
$var reg 1 ) crc_ca_match $end
$var reg 8 V crc_ca_recv [7:0] $end
$var reg 1 W crc_data_clear $end
$var reg 1 X crc_data_enable $end
$var reg 1 ' crc_data_error $end
$var reg 1 % crc_data_match $end
$var reg 8 Y crc_data_recv [7:0] $end
$var reg 1 ? cs_n $end
$var reg 8 Z data_for_crc [7:0] $end
$var reg 1 # done $end
$var reg 1 < io_oe $end
$var reg 8 [ io_out [7:0] $end
$var reg 4 \ next_state [3:0] $end
$var reg 64 ] rd_data [63:0] $end
$var reg 64 ^ rdata_buf [63:0] $end
$var reg 4 _ retransmit_cnt [3:0] $end
$var reg 1 9 sck $end
$var reg 4 ` state [3:0] $end
$var reg 3 a wait_cycles [2:0] $end
$var reg 64 b wr_data [63:0] $end
$scope module crc_ca_inst $end
$var wire 1 T clear $end
$var wire 1 - clk $end
$var wire 8 c crc_in [7:0] $end
$var wire 8 d data_in [7:0] $end
$var wire 1 U enable $end
$var wire 1 e rst $end
$var wire 8 f stage6 [7:0] $end
$var wire 8 g stage5 [7:0] $end
$var wire 8 h stage4 [7:0] $end
$var wire 8 i stage3 [7:0] $end
$var wire 8 j stage2 [7:0] $end
$var wire 8 k stage1 [7:0] $end
$var wire 8 l stage0 [7:0] $end
$var wire 8 m crc_next [7:0] $end
$var parameter 8 n POLY $end
$var reg 8 o crc_out [7:0] $end
$upscope $end
$scope module crc_data_inst $end
$var wire 1 W clear $end
$var wire 1 - clk $end
$var wire 8 p crc_in [7:0] $end
$var wire 8 q data_in [7:0] $end
$var wire 1 X enable $end
$var wire 1 r rst $end
$var wire 8 s stage6 [7:0] $end
$var wire 8 t stage5 [7:0] $end
$var wire 8 u stage4 [7:0] $end
$var wire 8 v stage3 [7:0] $end
$var wire 8 w stage2 [7:0] $end
$var wire 8 x stage1 [7:0] $end
$var wire 8 y stage0 [7:0] $end
$var wire 8 z crc_next [7:0] $end
$var parameter 8 { POLY $end
$var reg 8 | crc_out [7:0] $end
$upscope $end
$upscope $end
$scope module slave $end
$var wire 1 - clk $end
$var wire 1 + crc_ca_error_master $end
$var wire 1 ' crc_data_error_master $end
$var wire 1 ? cs_n $end
$var wire 8 } io_in [7:0] $end
$var wire 1 1 rst_n $end
$var wire 1 9 sck $end
$var wire 1 > data_strobe $end
$var wire 8 ~ crc_data_out [7:0] $end
$var wire 8 !" crc_ca_out [7:0] $end
$var parameter 4 "" STATE_ADDR $end
$var parameter 4 #" STATE_CMD $end
$var parameter 4 $" STATE_DONE $end
$var parameter 4 %" STATE_IDLE $end
$var parameter 4 &" STATE_RD_DATA $end
$var parameter 4 '" STATE_RECV_CRC_CA $end
$var parameter 4 (" STATE_RECV_CRC_DATA $end
$var parameter 4 )" STATE_SEND_CRC_DATA $end
$var parameter 4 *" STATE_WAIT_LATENCY $end
$var parameter 4 +" STATE_WR_DATA $end
$var reg 48 ," addr_reg [47:0] $end
$var reg 4 -" byte_cnt [3:0] $end
$var reg 8 ." command_reg [7:0] $end
$var reg 1 /" crc_ca_clear $end
$var reg 1 0" crc_ca_enable $end
$var reg 1 * crc_ca_error $end
$var reg 1 ( crc_ca_match $end
$var reg 8 1" crc_ca_recv [7:0] $end
$var reg 1 2" crc_data_clear $end
$var reg 1 3" crc_data_enable $end
$var reg 1 & crc_data_error $end
$var reg 1 $ crc_data_match $end
$var reg 8 4" crc_data_recv [7:0] $end
$var reg 8 5" data_for_crc [7:0] $end
$var reg 64 6" data_reg [63:0] $end
$var reg 1 8 io_oe $end
$var reg 8 7" io_out [7:0] $end
$var reg 3 8" latency_cnt [2:0] $end
$var reg 64 9" mem [63:0] $end
$var reg 1 ! ready $end
$var reg 4 :" retransmit_cnt [3:0] $end
$var reg 4 ;" state [3:0] $end
$scope module crc_ca_inst $end
$var wire 1 /" clear $end
$var wire 1 - clk $end
$var wire 8 <" crc_in [7:0] $end
$var wire 8 =" data_in [7:0] $end
$var wire 1 0" enable $end
$var wire 1 >" rst $end
$var wire 8 ?" stage6 [7:0] $end
$var wire 8 @" stage5 [7:0] $end
$var wire 8 A" stage4 [7:0] $end
$var wire 8 B" stage3 [7:0] $end
$var wire 8 C" stage2 [7:0] $end
$var wire 8 D" stage1 [7:0] $end
$var wire 8 E" stage0 [7:0] $end
$var wire 8 F" crc_next [7:0] $end
$var parameter 8 G" POLY $end
$var reg 8 H" crc_out [7:0] $end
$upscope $end
$scope module crc_data_inst $end
$var wire 1 2" clear $end
$var wire 1 - clk $end
$var wire 8 I" crc_in [7:0] $end
$var wire 8 J" data_in [7:0] $end
$var wire 1 3" enable $end
$var wire 1 K" rst $end
$var wire 8 L" stage6 [7:0] $end
$var wire 8 M" stage5 [7:0] $end
$var wire 8 N" stage4 [7:0] $end
$var wire 8 O" stage3 [7:0] $end
$var wire 8 P" stage2 [7:0] $end
$var wire 8 Q" stage1 [7:0] $end
$var wire 8 R" stage0 [7:0] $end
$var wire 8 S" crc_next [7:0] $end
$var parameter 8 T" POLY $end
$var reg 8 U" crc_out [7:0] $end
$upscope $end
$upscope $end
$upscope $end
$upscope $end
$enddefinitions $end
$comment Show the parameter values. $end
$dumpall
b111 T"
b111 G"
b101 +"
b100 *"
b1000 )"
b110 ("
b11 '"
b111 &"
b0 %"
b1001 $"
b1 #"
b10 ""
b111 {
b111 n
b100 P
b101 O
b11 N
b111 M
b1000 L
b110 K
b0 J
b1001 I
b1 H
b10 G
b110 F
$end
#0
$dumpvars
b0 U"
bx S"
bx R"
bx Q"
bx P"
bx O"
bx N"
bx M"
bx L"
1K"
bx J"
bx I"
b0 H"
bx F"
bx E"
bx D"
bx C"
bx B"
bx A"
bx @"
bx ?"
1>"
bx ="
bx <"
b0 ;"
b0 :"
bx 9"
b0 8"
b0 7"
b0 6"
bx 5"
bx 4"
03"
12"
bx 1"
00"
1/"
b0 ."
b0 -"
b0 ,"
b0 !"
b0 ~
b0 }
b0 |
bx z
bx y
bx x
bx w
bx v
bx u
bx t
bx s
1r
bx q
bx p
b0 o
bx m
bx l
bx k
bx j
bx i
bx h
bx g
bx f
1e
bx d
bx c
bx b
b0 a
b0 `
b0 _
b0 ^
b0 ]
b0 \
b0 [
bx Z
bx Y
0X
1W
bx V
0U
1T
bx S
b0 R
bx Q
b0 E
b0 D
bx C
b0 B
bx A
bx @
1?
0>
b0 =
0<
b0 ;
b0 :
09
08
b0 7
bx 6
bx 5
bx 4
bx 3
x2
01
bx 0
bx /
bx .
0-
bx ,
0+
0*
0)
0(
0'
0&
0%
0$
0#
b0 "
0!
$end
#5
1>
1-
#10
0>
0-
#15
1>
1-
#20
b1 ;"
0>
0-
0e
0r
0>"
0K"
11
#25
1>
1-
#30
0>
0-
#35
1>
1-
#40
0>
0-
#45
b1000100100010001100110100010001010101011001100111011110001000 b
b11001100101010101000100001100110010001010101011 Q
b10100101 S
b1 \
1>
12
b1000100100010001100110100010001010101011001100111011110001000 3
b1000100100010001100110100010001010101011001100111011110001000 6
b1000100100010001100110100010001010101011001100111011110001000 C
b11001100101010101000100001100110010001010101011 ,
b11001100101010101000100001100110010001010101011 4
b11001100101010101000100001100110010001010101011 @
b10100101 .
b10100101 5
b10100101 A
1-
#50
0>
0-
#55
b1 `
b10 \
1>
02
1-
#60
0>
0-
#65
b1110010 m
b1110010 z
b111001 f
b111001 s
b10011111 g
b10011111 t
b11001100 h
b11001100 u
b1100110 i
b1100110 v
b110011 j
b110011 w
b10011010 k
b10011010 x
b1001101 l
b1001101 y
b10100101 c
b10100101 p
b10100101 =
b10100101 B
b10100101 }
b10100101 Z
b10100101 d
b10100101 q
1U
0T
b1 R
b10100101 ;
b10100101 [
1<
0?
b10 `
1>
1-
#70
b1110010 F"
b1110010 S"
b111001 ?"
b111001 L"
b10011111 @"
b10011111 M"
b11001100 A"
b11001100 N"
b1100110 B"
b1100110 O"
b110011 C"
b110011 P"
b10011010 D"
b10011010 Q"
b1001101 E"
b1001101 R"
b10100101 <"
b10100101 I"
b10100101 5"
b10100101 ="
b10100101 J"
10"
0/"
b10 ;"
b1 -"
b10100101 ."
0>
0-
#75
b101011 F"
b110101 z
b10010110 ?"
b1101100 m
b10011001 s
b110110 f
b1001011 @"
b11001111 t
b11011 g
b10100110 A"
b11100100 u
b1010011 B"
b10001110 h
b1110010 v
b10101010 C"
b1000111 i
b111001 w
b10100000 j
b1010101 D"
b1010000 k
b10011111 x
b10101001 E"
b101000 l
b11001100 y
b11010111 <"
b10100 c
b1100110 p
b1100110 =
b1100110 B
b1100110 }
b1110010 E
b1110010 o
b1110010 !"
b1110010 H"
b10 R
b1100110 Z
b1100110 d
b1100110 q
b1100110 ;
b1100110 [
1U
1>
1-
#80
b110101 S"
b1101100 F"
b10011001 L"
b110110 ?"
b11011 @"
b11001111 M"
b10001110 A"
b11100100 N"
b1000111 B"
b1110010 O"
b111001 P"
b10100000 C"
b1010000 D"
b10011111 Q"
b101000 E"
b11001100 R"
b10100 <"
b1100110 I"
b10 -"
b1100110 5"
b1100110 ="
b1100110 J"
b11001100000000000000000000000000000000000000000 ,"
10"
0>
0-
#85
b10101100 z
b10101111 m
b110110 F"
b1010110 s
b11010100 f
b11011 ?"
b1101010 g
b101011 t
b10001110 @"
b110101 h
b10010110 u
b1000111 A"
b10011001 i
b1001011 v
b10100000 B"
b10100110 w
b1010000 C"
b11001111 j
b1010011 x
b101000 D"
b11100100 k
b10100 E"
b1110010 l
b10101010 y
b1010 <"
b111001 c
b1010101 p
b1010101 =
b1010101 B
b1010101 }
b1101100 E
b1101100 o
b1101100 !"
b1101100 H"
b11 R
b1010101 Z
b1010101 d
b1010101 q
b1010101 ;
b1010101 [
1U
1>
1-
#90
b10101100 S"
b10101111 F"
b1010110 L"
b11010100 ?"
b101011 M"
b1101010 @"
b110101 A"
b10010110 N"
b1001011 O"
b10011001 B"
b10100110 P"
b11001111 C"
b1010011 Q"
b11100100 D"
b1110010 E"
b10101010 R"
b111001 <"
b1010101 I"
b11 -"
b1010101 5"
b1010101 ="
b1010101 J"
b11001100101010100000000000000000000000000000000 ,"
10"
0>
0-
#95
b11101000 F"
b10011111 m
b11011011 z
b1110100 ?"
b11001100 f
b11101110 s
b111010 @"
b1100110 g
b1110111 t
b11101 A"
b110011 h
b10111000 u
b10001101 B"
b10011010 i
b1011100 v
b11000101 C"
b1001101 j
b101110 w
b10111 x
b11100001 D"
b10100101 k
b11110011 E"
b11010001 l
b10001000 y
b11111010 <"
b11101011 c
b1000100 p
b1000100 =
b1000100 B
b1000100 }
b10101111 E
b10101111 o
b10101111 !"
b10101111 H"
b100 R
b1000100 Z
b1000100 d
b1000100 q
b1000100 ;
b1000100 [
1U
1>
1-
#100
b10011111 F"
b11001100 ?"
b11011011 S"
b1100110 @"
b11101110 L"
b110011 A"
b1110111 M"
b10011010 B"
b10111000 N"
b1001101 C"
b1011100 O"
b101110 P"
b10100101 D"
b10111 Q"
b11010001 E"
b10001000 R"
b11101011 <"
b1000100 I"
b100 -"
b1000100 5"
b1000100 ="
b1000100 J"
b11001100101010101000100000000000000000000000000 ,"
10"
0>
0-
#105
b1111 F"
b1001101 m
b10011001 z
b10000100 ?"
b10100101 f
b1000010 @"
b11010001 g
b11001111 s
b100001 A"
b11101011 h
b11100100 t
b10010011 B"
b11110110 i
b1110010 u
b11001010 C"
b1111011 j
b111001 v
b1100101 D"
b10011111 w
b10111110 k
b11001100 x
b10110001 E"
b1011111 l
b1100110 y
b11011011 <"
b10101100 c
b110011 p
b110011 =
b110011 B
b110011 }
b10011111 E
b10011111 o
b10011111 !"
b10011111 H"
b101 R
b110011 Z
b110011 d
b110011 q
b110011 ;
b110011 [
1U
1>
1-
#110
b1001101 F"
b10011001 S"
b10100101 ?"
b11010001 @"
b11001111 L"
b11101011 A"
b11100100 M"
b11110110 B"
b1110010 N"
b111001 O"
b1111011 C"
b10011111 P"
b10111110 D"
b11001100 Q"
b1011111 E"
b1100110 R"
b10101100 <"
b110011 I"
b101 -"
b110011 5"
b110011 ="
b110011 J"
b11001100101010101000100001100110000000000000000 ,"
10"
0>
0-
#115
b1111101 F"
b1010 m
b10111101 ?"
b101 f
b11101110 z
b1110111 s
b11011101 @"
b10000001 g
b10111000 t
b11101101 A"
b11000011 h
b1011100 u
b11110101 B"
b11100010 i
b101110 v
b11111001 C"
b1110001 j
b10111 w
b11111111 D"
b10111011 k
b10001000 x
b11111100 E"
b11011110 l
b1000100 y
b1111110 <"
b11 \
b1101111 c
b100010 p
b100010 =
b100010 B
b100010 }
b1001101 E
b1001101 o
b1001101 !"
b1001101 H"
b110 R
b100010 Z
b100010 d
b100010 q
b100010 ;
b100010 [
1U
1>
1-
#120
b1010 F"
b101 ?"
b11101110 S"
b10000001 @"
b1110111 L"
b11000011 A"
b10111000 M"
b1011100 N"
b11100010 B"
b101110 O"
b1110001 C"
b10111 P"
b10111011 D"
b10001000 Q"
b11011110 E"
b1000100 R"
b1101111 <"
b100010 I"
b110 -"
b100010 5"
b100010 ="
b100010 J"
b11001100101010101000100001100110010001000000000 ,"
10"
0>
0-
#125
b1101110 m
b11011000 F"
b110111 f
b1011000 z
b1101100 ?"
b101100 s
b110110 @"
b10011000 g
b10110 t
b11011 A"
b1001100 h
b1011 u
b100110 i
b10001110 B"
b10000110 v
b10011 j
b1000111 C"
b1000011 w
b10001010 k
b10100000 D"
b10100010 x
b1010000 E"
b1000101 l
b1010001 y
b101000 <"
b10100001 c
b10101011 p
b10101011 =
b10101011 B
b10101011 }
b100 \
b1010 E
b1010 o
b1010 !"
b1010 H"
b111 R
b10101011 Z
b10101011 d
b10101011 q
b10101011 ;
b10101011 [
0U
b11 `
1>
1-
#130
b1101110 F"
b1011000 S"
b110111 ?"
b101100 L"
b10011000 @"
b10110 M"
b1001100 A"
b1011 N"
b100110 B"
b10000110 O"
b10011 C"
b1000011 P"
b10001010 D"
b10100010 Q"
b1000101 E"
b1010001 R"
b10100001 <"
b10101011 I"
b11 ;"
b111 -"
b10101011 5"
b10101011 ="
b10101011 J"
b11001100101010101000100001100110010001010101011 ,"
00"
0>
0-
#135
b1010 =
b1010 B
b1010 }
b100 `
b1010 ;
b1010 [
1>
1-
#140
b101 ;"
1*
b1010 1"
0>
0-
#145
b1000001 m
b1110111 z
b10100011 f
b10111000 s
b1011100 t
b11010010 g
b101110 u
b1101001 h
b10110111 i
b10111 v
b11011000 j
b10001000 w
b1101100 k
b1000100 x
b110110 l
b100010 y
b11011 c
b10001 p
b10001 =
b10001 B
b10001 }
b1000 R
0W
1X
b10001 Z
b10001 d
b10001 q
b10001 ;
b10001 [
1>
1-
#150
b1000001 F"
b1110111 S"
b10100011 ?"
b10111000 L"
b1011100 M"
b11010010 @"
b101110 N"
b1101001 A"
b10110111 B"
b10111 O"
b11011000 C"
b10001000 P"
b1101100 D"
b1000100 Q"
b110110 E"
b100010 R"
b11011 <"
b10001 I"
b1000 -"
02"
13"
b10001 5"
b10001 ="
b10001 J"
b1000100000000000000000000000000000000000000000000000000000000 6"
0>
0-
#155
b11011000 m
b10101100 z
b1101100 f
b1010110 s
b110110 g
b101011 t
b11011 h
b10010110 u
b10001110 i
b1001011 v
b1000111 j
b10100110 w
b10100000 k
b1010011 x
b1010000 l
b10101010 y
b101000 c
b1010101 p
b100010 =
b100010 B
b100010 }
b1110111 D
b1110111 |
b1001 R
b100010 Z
b100010 d
b100010 q
b100010 ;
b100010 [
1X
1>
1-
#160
b11011000 F"
b10101100 S"
b1101100 ?"
b1010110 L"
b110110 @"
b101011 M"
b11011 A"
b10010110 N"
b10001110 B"
b1001011 O"
b1000111 C"
b10100110 P"
b10100000 D"
b1010011 Q"
b1010000 E"
b10101010 R"
b101000 <"
b1010101 I"
b1001 -"
b100010 5"
b100010 ="
b100010 J"
b1000100100010000000000000000000000000000000000000000000000000 6"
13"
b1110111 ~
b1110111 U"
0>
0-
#165
b11010100 z
b10101111 m
b1101010 s
b11010100 f
b110101 t
b1101010 g
b110101 h
b10011001 u
b11001111 v
b10011001 i
b11001111 j
b11100100 w
b1110010 x
b11100100 k
b1110010 l
b111001 y
b111001 c
b10011111 p
b110011 =
b110011 B
b110011 }
b10101100 D
b10101100 |
b1010 R
b110011 Z
b110011 d
b110011 q
b110011 ;
b110011 [
1X
1>
1-
#170
b11010100 S"
b10101111 F"
b1101010 L"
b11010100 ?"
b110101 M"
b1101010 @"
b110101 A"
b10011001 N"
b11001111 O"
b10011001 B"
b11001111 C"
b11100100 P"
b1110010 Q"
b11100100 D"
b1110010 E"
b111001 R"
b111001 <"
b10011111 I"
b1010 -"
b110011 5"
b110011 ="
b110011 J"
b1000100100010001100110000000000000000000000000000000000000000 6"
13"
b10101100 ~
b10101100 U"
0>
0-
#175
b11101101 m
b11111001 z
b11110101 f
b11111111 s
b11111001 g
b11111100 t
b11111111 h
b1111110 u
b111111 v
b11111100 i
b1111110 j
b10011100 w
b1001110 x
b111111 k
b100111 y
b10011100 l
b1001110 c
b10010000 p
b1000100 =
b1000100 B
b1000100 }
b11010100 D
b11010100 |
b1011 R
b1000100 Z
b1000100 d
b1000100 q
b1000100 ;
b1000100 [
1X
1>
1-
#180
b11101101 F"
b11111001 S"
b11110101 ?"
b11111111 L"
b11111001 @"
b11111100 M"
b11111111 A"
b1111110 N"
b111111 O"
b11111100 B"
b1111110 C"
b10011100 P"
b1001110 Q"
b111111 D"
b100111 R"
b10011100 E"
b1001110 <"
b10010000 I"
b1011 -"
b1000100 5"
b1000100 ="
b1000100 J"
b1000100100010001100110100010000000000000000000000000000000000 6"
13"
b11010100 ~
b11010100 U"
0>
0-
#185
b10011010 m
b1001101 z
b1001101 f
b10100101 s
b10100101 g
b11010001 t
b11010001 h
b11101011 u
b11110110 v
b11101011 i
b11110110 j
b1111011 w
b1111011 k
b10111110 x
b1011111 y
b10111110 l
b1011111 c
b10101100 p
b1010101 =
b1010101 B
b1010101 }
b11111001 D
b11111001 |
b1100 R
b1010101 Z
b1010101 d
b1010101 q
b1010101 ;
b1010101 [
1X
1>
1-
#190
b10011010 F"
b1001101 S"
b1001101 ?"
b10100101 L"
b10100101 @"
b11010001 M"
b11010001 A"
b11101011 N"
b11110110 O"
b11101011 B"
b11110110 C"
b1111011 P"
b1111011 D"
b10111110 Q"
b1011111 R"
b10111110 E"
b1011111 <"
b10101100 I"
b1100 -"
b1010101 5"
b1010101 ="
b1010101 J"
b1000100100010001100110100010001010101000000000000000000000000 6"
13"
b11111001 ~
b11111001 U"
0>
0-
#195
b11 m
b11010001 z
b10000010 f
b11101011 s
b1000001 g
b11110110 t
b10100011 h
b1111011 u
b11010010 i
b10111110 v
b1101001 j
b1011111 w
b10110111 k
b10101100 x
b11011000 l
b1010110 y
b1101100 c
b101011 p
b1100110 =
b1100110 B
b1100110 }
b1001101 D
b1001101 |
b1101 R
b1100110 Z
b1100110 d
b1100110 q
b1100110 ;
b1100110 [
1X
1>
1-
#200
b11 F"
b11010001 S"
b10000010 ?"
b11101011 L"
b1000001 @"
b11110110 M"
b10100011 A"
b1111011 N"
b11010010 B"
b10111110 O"
b1101001 C"
b1011111 P"
b10110111 D"
b10101100 Q"
b11011000 E"
b1010110 R"
b1101100 <"
b101011 I"
b1101 -"
b1100110 5"
b1100110 ="
b1100110 J"
b1000100100010001100110100010001010101011001100000000000000000 6"
13"
b1001101 ~
b1001101 U"
0>
0-
#205
b1110100 m
b1111011 z
b111010 f
b10111110 s
b11101 g
b1011111 t
b10001101 h
b10101100 u
b11000101 i
b1010110 v
b11100001 j
b101011 w
b11110011 k
b10010110 x
b11111010 l
b1001011 y
b101 \
b1111101 c
b10100110 p
b1110111 =
b1110111 B
b1110111 }
b11010001 D
b11010001 |
b1110 R
b1110111 Z
b1110111 d
b1110111 q
b1110111 ;
b1110111 [
1X
1>
1-
#210
b1110100 F"
b1111011 S"
b111010 ?"
b10111110 L"
b11101 @"
b1011111 M"
b10001101 A"
b10101100 N"
b11000101 B"
b1010110 O"
b11100001 C"
b101011 P"
b11110011 D"
b10010110 Q"
b11111010 E"
b1001011 R"
b1111101 <"
b10100110 I"
b1110 -"
b1110111 5"
b1110111 ="
b1110111 J"
b1000100100010001100110100010001010101011001100111011100000000 6"
13"
b11010001 ~
b11010001 U"
0>
0-
#215
b11010111 z
b10000111 m
b11101000 s
b11000000 f
b1110100 t
b1100000 g
b111010 u
b110000 h
b11101 v
b11000 i
b10001101 w
b1100 j
b110 k
b11000101 x
b11100001 y
b11 l
b1001 \
b10000010 c
b11110011 p
b10001000 =
b10001000 B
b10001000 }
b1111011 D
b1111011 |
b101 `
b1111 R
b10001000 Z
b10001000 d
b10001000 q
b10001000 ;
b10001000 [
0X
1>
1-
#220
b11010111 S"
b10000111 F"
b11101000 L"
b11000000 ?"
b1110100 M"
b1100000 @"
b111010 N"
b110000 A"
b11101 O"
b11000 B"
b10001101 P"
b1100 C"
b110 D"
b11000101 Q"
b11100001 R"
b11 E"
b10000010 <"
b11110011 I"
b110 ;"
b1111 -"
b10001000 5"
b10001000 ="
b10001000 J"
b1000100100010001100110100010001010101011001100111011110001000 6"
03"
b1111011 ~
b1111011 U"
0>
0-
#225
b1111011 =
b1111011 B
b1111011 }
b1 \
b1111011 ;
b1111011 [
b1001 `
1>
1-
#230
b1001 ;"
b1000100100010001100110100010001010101011001100111011110001000 9"
1$
b1111011 4"
0>
0-
#235
b10 \
b0 =
b0 B
b0 }
b1 `
1W
1T
b1 _
b0 R
0<
1?
1>
1-
#240
b10 \
b1 ;"
0*
12"
1/"
b1 :"
b0 -"
0$
0>
0-
#245
b1110010 z
b10110001 F"
b1110010 m
b111001 s
b11011011 ?"
b111001 f
b10011111 t
b11101110 @"
b10011111 g
b11001100 u
b1110111 A"
b11001100 h
b1100110 v
b10111000 B"
b1100110 i
b110011 w
b1011100 C"
b110011 j
b101110 D"
b10011010 k
b10011010 x
b10111 E"
b1001101 l
b1001101 y
b10001000 <"
b10100101 c
b10100101 p
b10100101 =
b10100101 B
b10100101 }
b0 E
b0 o
b0 D
b0 |
b0 !"
b0 H"
b10100101 Z
b10100101 d
b10100101 q
1U
0T
b1 R
b10100101 ;
b10100101 [
1<
0?
b10 `
1>
1-
#250
b1110010 F"
b1110010 S"
b111001 ?"
b111001 L"
b10011111 @"
b10011111 M"
b11001100 A"
b11001100 N"
b1100110 O"
b1100110 B"
b110011 P"
b110011 C"
b10011010 D"
b10011010 Q"
b1001101 E"
b1001101 R"
b10100101 <"
b10100101 I"
b10100101 5"
b10100101 ="
b10100101 J"
10"
0/"
b10 ;"
b1 -"
b0 ~
b0 U"
0>
0-
#255
b101011 F"
b110101 z
b10010110 ?"
b1101100 m
b10011001 s
b110110 f
b1001011 @"
b11001111 t
b11011 g
b10100110 A"
b11100100 u
b1010011 B"
b10001110 h
b1110010 v
b10101010 C"
b1000111 i
b111001 w
b10100000 j
b1010101 D"
b1010000 k
b10011111 x
b10101001 E"
b101000 l
b11001100 y
b11010111 <"
b10100 c
b1100110 p
b1100110 =
b1100110 B
b1100110 }
b1110010 E
b1110010 o
b1110010 !"
b1110010 H"
b10 R
b1100110 Z
b1100110 d
b1100110 q
b1100110 ;
b1100110 [
1U
1>
1-
#260
b110101 S"
b1101100 F"
b10011001 L"
b110110 ?"
b11011 @"
b11001111 M"
b10001110 A"
b11100100 N"
b1000111 B"
b1110010 O"
b111001 P"
b10100000 C"
b1010000 D"
b10011111 Q"
b101000 E"
b11001100 R"
b10100 <"
b1100110 I"
b10 -"
b1100110 5"
b1100110 ="
b1100110 J"
10"
0>
0-
#265
b10101100 z
b10101111 m
b110110 F"
b1010110 s
b11010100 f
b11011 ?"
b1101010 g
b101011 t
b10001110 @"
b110101 h
b10010110 u
b1000111 A"
b10011001 i
b1001011 v
b10100000 B"
b10100110 w
b1010000 C"
b11001111 j
b1010011 x
b101000 D"
b11100100 k
b10100 E"
b1110010 l
b10101010 y
b1010 <"
b111001 c
b1010101 p
b1010101 =
b1010101 B
b1010101 }
b1101100 E
b1101100 o
b1101100 !"
b1101100 H"
b11 R
b1010101 Z
b1010101 d
b1010101 q
b1010101 ;
b1010101 [
1U
1>
1-
#270
b10101100 S"
b10101111 F"
b1010110 L"
b11010100 ?"
b101011 M"
b1101010 @"
b110101 A"
b10010110 N"
b1001011 O"
b10011001 B"
b10100110 P"
b11001111 C"
b1010011 Q"
b11100100 D"
b1110010 E"
b10101010 R"
b111001 <"
b1010101 I"
b11 -"
b1010101 5"
b1010101 ="
b1010101 J"
10"
0>
0-
#275
b11101000 F"
b10011111 m
b11011011 z
b1110100 ?"
b11001100 f
b11101110 s
b111010 @"
b1100110 g
b1110111 t
b11101 A"
b110011 h
b10111000 u
b10001101 B"
b10011010 i
b1011100 v
b11000101 C"
b1001101 j
b101110 w
b10111 x
b11100001 D"
b10100101 k
b11110011 E"
b11010001 l
b10001000 y
b11111010 <"
b11101011 c
b1000100 p
b1000100 =
b1000100 B
b1000100 }
b10101111 E
b10101111 o
b10101111 !"
b10101111 H"
b100 R
b1000100 Z
b1000100 d
b1000100 q
b1000100 ;
b1000100 [
1U
1>
1-
#280
b10011111 F"
b11001100 ?"
b11011011 S"
b1100110 @"
b11101110 L"
b110011 A"
b1110111 M"
b10011010 B"
b10111000 N"
b1001101 C"
b1011100 O"
b101110 P"
b10100101 D"
b10111 Q"
b11010001 E"
b10001000 R"
b11101011 <"
b1000100 I"
b100 -"
b1000100 5"
b1000100 ="
b1000100 J"
10"
0>
0-
#285
b1111 F"
b1001101 m
b10011001 z
b10000100 ?"
b10100101 f
b1000010 @"
b11010001 g
b11001111 s
b100001 A"
b11101011 h
b11100100 t
b10010011 B"
b11110110 i
b1110010 u
b11001010 C"
b1111011 j
b111001 v
b1100101 D"
b10011111 w
b10111110 k
b11001100 x
b10110001 E"
b1011111 l
b1100110 y
b11011011 <"
b10101100 c
b110011 p
b110011 =
b110011 B
b110011 }
b10011111 E
b10011111 o
b10011111 !"
b10011111 H"
b101 R
b110011 Z
b110011 d
b110011 q
b110011 ;
b110011 [
1U
1>
1-
#290
b1001101 F"
b10011001 S"
b10100101 ?"
b11010001 @"
b11001111 L"
b11101011 A"
b11100100 M"
b11110110 B"
b1110010 N"
b111001 O"
b1111011 C"
b10011111 P"
b10111110 D"
b11001100 Q"
b1011111 E"
b1100110 R"
b10101100 <"
b110011 I"
b101 -"
b110011 5"
b110011 ="
b110011 J"
10"
0>
0-
